{
  "megacheer-crown": {
    "name": "megacheer-crown",
    "img": "img/Head Accessories/megacheer-crown.gif"
  },
  "Duck": {
    "name": "Duck",
    "img": "img/Head Accessories/Duck.png"
  },
  "Skulletor-Hood": {
    "name": "Skulletor-Hood",
    "img": "img/Head Accessories/Skulletor-Hood.png"
  },
  "polka-cap": {
    "name": "polka-cap",
    "img": "img/Head Accessories/polka-cap.gif"
  },
  "rektguy_acid_hood_head": {
    "name": "rektguy_acid_hood_head",
    "img": "img/Head Accessories/rektguy_acid_hood_head.png"
  },
  "Detective_Grey": {
    "name": "Detective_Grey",
    "img": "img/Head Accessories/Detective_Grey.png"
  },
  "Headband": {
    "name": "Headband",
    "img": "img/Head Accessories/Headband.png"
  },
  "Blitmap-Hat": {
    "name": "Blitmap-Hat",
    "img": "img/Head Accessories/Blitmap-Hat.png"
  },
  "turtleneck": {
    "name": "turtleneck",
    "img": "img/Head Accessories/turtleneck.gif"
  },
  "watchercrown": {
    "name": "watchercrown",
    "img": "img/Head Accessories/watchercrown.png"
  },
  "eggplant_horns_small_headabove": {
    "name": "eggplant_horns_small_headabove",
    "img": "img/Head Accessories/eggplant_horns_small_headabove.png"
  },
  "Detective_Brown": {
    "name": "Detective_Brown",
    "img": "img/Head Accessories/Detective_Brown.png"
  },
  "watcherflames": {
    "name": "watcherflames",
    "img": "img/Head Accessories/watcherflames.png"
  },
  "Kabuto_Samurai": {
    "name": "Kabuto_Samurai",
    "img": "img/Head Accessories/Kabuto_Samurai.png"
  },
  "StarshipTroopers-32": {
    "name": "StarshipTroopers-32",
    "img": "img/Head Accessories/StarshipTroopers-32.png"
  },
  "wildorange_headabove": {
    "name": "wildorange_headabove",
    "img": "img/Head Accessories/wildorange_headabove.png"
  },
  "astronaut": {
    "name": "astronaut",
    "img": "img/Head Accessories/astronaut.png"
  },
  "thong-helga": {
    "name": "thong-helga",
    "img": "img/Head Accessories/thong-helga.gif"
  },
  "Rodman": {
    "name": "Rodman",
    "img": "img/Head Accessories/Rodman.png"
  },
  "explorer": {
    "name": "explorer",
    "img": "img/Head Accessories/explorer.png"
  },
  "geishahair": {
    "name": "geishahair",
    "img": "img/Head Accessories/geishahair.png"
  },
  "GreenMotorHelmet": {
    "name": "GreenMotorHelmet",
    "img": "img/Head Accessories/GreenMotorHelmet.png"
  },
  "oni_mask_top_mask": {
    "name": "oni_mask_top_mask",
    "img": "img/Head Accessories/oni_mask_top_mask.png"
  },
  "helga_watcher_headabove": {
    "name": "helga_watcher_headabove",
    "img": "img/Head Accessories/helga_watcher_headabove.png"
  },
  "blitmap_cowboy_hat2_headabove": {
    "name": "blitmap_cowboy_hat2_headabove",
    "img": "img/Head Accessories/blitmap_cowboy_hat2_headabove.png"
  },
  "1337_MONROE_32": {
    "name": "1337_MONROE_32",
    "img": "img/Head Accessories/1337_MONROE_32.png"
  },
  "Chain-Headband": {
    "name": "Chain-Headband",
    "img": "img/Head Accessories/Chain-Headband.png"
  },
  "raccoon_hat_8liens": {
    "name": "raccoon_hat_8liens",
    "img": "img/Head Accessories/raccoon_hat_8liens.png"
  },
  "Helga-Brunette": {
    "name": "Helga-Brunette",
    "img": "img/Head Accessories/Helga-Brunette.png"
  },
  "NYAN_SKULLx": {
    "name": "NYAN_SKULLx",
    "img": "img/Head Accessories/NYAN_SKULLx.png"
  },
  "demonhood_headabove": {
    "name": "demonhood_headabove",
    "img": "img/Head Accessories/demonhood_headabove.png"
  },
  "Red-Hood": {
    "name": "Red-Hood",
    "img": "img/Head Accessories/Red-Hood.png"
  },
  "sun_8liens_hat": {
    "name": "sun_8liens_hat",
    "img": "img/Head Accessories/sun_8liens_hat.png"
  },
  "hyperloot-dragon": {
    "name": "hyperloot-dragon",
    "img": "img/Head Accessories/hyperloot-dragon.gif"
  },
  "Blit_Samurai": {
    "name": "Blit_Samurai",
    "img": "img/Head Accessories/Blit_Samurai.png"
  },
  "BabyCurl-32": {
    "name": "BabyCurl-32",
    "img": "img/Head Accessories/BabyCurl-32.png"
  },
  "rose_hair_headabove": {
    "name": "rose_hair_headabove",
    "img": "img/Head Accessories/rose_hair_headabove.png"
  },
  "Genesis-Hat": {
    "name": "Genesis-Hat",
    "img": "img/Head Accessories/Genesis-Hat.png"
  },
  "MC_cap": {
    "name": "MC_cap",
    "img": "img/Head Accessories/MC_cap.png"
  },
  "watcher_demonhood_headabove": {
    "name": "watcher_demonhood_headabove",
    "img": "img/Head Accessories/watcher_demonhood_headabove.png"
  },
  "Divine-Robe": {
    "name": "Divine-Robe",
    "img": "img/Head Accessories/Divine-Robe.png"
  },
  "1337-half-neon-green": {
    "name": "1337-half-neon-green",
    "img": "img/Head Accessories/1337-half-neon-green.png"
  },
  "Thong-Elite-II": {
    "name": "Thong-Elite-II",
    "img": "img/Head Accessories/Thong-Elite-II.png"
  },
  "mfer_body_head": {
    "name": "mfer_body_head",
    "img": "img/Head Accessories/mfer_body_head.png"
  },
  "totally_watcher_body": {
    "name": "totally_watcher_body",
    "img": "img/Head Accessories/totally_watcher_body.png"
  },
  "Amai-skull": {
    "name": "Amai-skull",
    "img": "img/Head Accessories/Amai-skull.png"
  },
  "toadz_mysterious_hood_headabove": {
    "name": "toadz_mysterious_hood_headabove",
    "img": "img/Head Accessories/toadz_mysterious_hood_headabove.png"
  },
  "Helga-Black": {
    "name": "Helga-Black",
    "img": "img/Head Accessories/Helga-Black.png"
  },
  "SproutingMantis-32": {
    "name": "SproutingMantis-32",
    "img": "img/Head Accessories/SproutingMantis-32.png"
  },
  "Duck_Cap": {
    "name": "Duck_Cap",
    "img": "img/Head Accessories/Duck_Cap.png"
  },
  "helga_logo_headabove": {
    "name": "helga_logo_headabove",
    "img": "img/Head Accessories/helga_logo_headabove.png"
  },
  "Gcap": {
    "name": "Gcap",
    "img": "img/Head Accessories/Gcap.png"
  },
  "headpiece_8liens": {
    "name": "headpiece_8liens",
    "img": "img/Head Accessories/headpiece_8liens.png"
  },
  "geishahelmet": {
    "name": "geishahelmet",
    "img": "img/Head Accessories/geishahelmet.png"
  },
  "black-suit": {
    "name": "black-suit",
    "img": "img/Head Accessories/black-suit.gif"
  },
  "1337-morning-blit": {
    "name": "1337-morning-blit",
    "img": "img/Head Accessories/1337-morning-blit.png"
  },
  "lasagnatoadz": {
    "name": "lasagnatoadz",
    "img": "img/Head Accessories/lasagnatoadz.png"
  },
  "toadzbowlcut_headabove": {
    "name": "toadzbowlcut_headabove",
    "img": "img/Head Accessories/toadzbowlcut_headabove.png"
  },
  "hyperloot-demon": {
    "name": "hyperloot-demon",
    "img": "img/Head Accessories/hyperloot-demon.png"
  },
  "cdbcathood_headabove": {
    "name": "cdbcathood_headabove",
    "img": "img/Head Accessories/cdbcathood_headabove.png"
  },
  "Tie-Dye-Bandana": {
    "name": "Tie-Dye-Bandana",
    "img": "img/Head Accessories/Tie-Dye-Bandana.png"
  },
  "Thong-Crown": {
    "name": "Thong-Crown",
    "img": "img/Head Accessories/Thong-Crown.png"
  },
  "Gigaglow-Yellow": {
    "name": "Gigaglow-Yellow",
    "img": "img/Head Accessories/Gigaglow-Yellow.png"
  },
  "mining-helmet": {
    "name": "mining-helmet",
    "img": "img/Head Accessories/mining-helmet.png"
  },
  "brain": {
    "name": "brain",
    "img": "img/Head Accessories/brain.png"
  },
  "technoviking": {
    "name": "technoviking",
    "img": "img/Head Accessories/technoviking.png"
  },
  "HELPLINE_SKULLx": {
    "name": "HELPLINE_SKULLx",
    "img": "img/Head Accessories/HELPLINE_SKULLx.png"
  },
  "LadiesTopHat-32": {
    "name": "LadiesTopHat-32",
    "img": "img/Head Accessories/LadiesTopHat-32.png"
  },
  "animofrog": {
    "name": "animofrog",
    "img": "img/Head Accessories/animofrog.png"
  },
  "helga_purple_headabove": {
    "name": "helga_purple_headabove",
    "img": "img/Head Accessories/helga_purple_headabove.png"
  },
  "Well-combed-hair-blk": {
    "name": "Well-combed-hair-blk",
    "img": "img/Head Accessories/Well-combed-hair-blk.gif"
  },
  "his_name_is_michael_hirsch_head": {
    "name": "his_name_is_michael_hirsch_head",
    "img": "img/Head Accessories/his_name_is_michael_hirsch_head.png"
  },
  "Irradiated-32": {
    "name": "Irradiated-32",
    "img": "img/Head Accessories/Irradiated-32.png"
  },
  "1337_TURBAN-1x": {
    "name": "1337_TURBAN-1x",
    "img": "img/Head Accessories/1337_TURBAN-1x.png"
  },
  "kaiju": {
    "name": "kaiju",
    "img": "img/Head Accessories/kaiju.png"
  },
  "1337_cap": {
    "name": "1337_cap",
    "img": "img/Head Accessories/1337_cap.png"
  },
  "Detective": {
    "name": "Detective",
    "img": "img/Head Accessories/Detective.png"
  },
  "headband_blue": {
    "name": "headband_blue",
    "img": "img/Head Accessories/headband_blue.png"
  },
  "helga_grey_headabove": {
    "name": "helga_grey_headabove",
    "img": "img/Head Accessories/helga_grey_headabove.png"
  },
  "skull_hat": {
    "name": "skull_hat",
    "img": "img/Head Accessories/skull_hat.png"
  },
  "Meta-Hat": {
    "name": "Meta-Hat",
    "img": "img/Head Accessories/Meta-Hat.png"
  },
  "thong-rune": {
    "name": "thong-rune",
    "img": "img/Head Accessories/thong-rune.gif"
  },
  "croko": {
    "name": "croko",
    "img": "img/Head Accessories/croko.png"
  },
  "11_37": {
    "name": "11_37",
    "img": "img/Head Accessories/11_37.png"
  },
  "Thong-Leather": {
    "name": "Thong-Leather",
    "img": "img/Head Accessories/Thong-Leather.png"
  },
  "1337-smiley-": {
    "name": "1337-smiley-",
    "img": "img/Head Accessories/1337-smiley-.png"
  },
  "rightclicksaveskull_mask": {
    "name": "rightclicksaveskull_mask",
    "img": "img/Head Accessories/rightclicksaveskull_mask.png"
  },
  "logo_hoodie_headabove": {
    "name": "logo_hoodie_headabove",
    "img": "img/Head Accessories/logo_hoodie_headabove.png"
  },
  "laserearswtf": {
    "name": "laserearswtf",
    "img": "img/Head Accessories/laserearswtf.png"
  },
  "rainbowhair": {
    "name": "rainbowhair",
    "img": "img/Head Accessories/rainbowhair.png"
  },
  "tracksuit-green": {
    "name": "tracksuit-green",
    "img": "img/Head Accessories/tracksuit-green.gif"
  },
  "Thong-Tie-Dye": {
    "name": "Thong-Tie-Dye",
    "img": "img/Head Accessories/Thong-Tie-Dye.png"
  },
  "blitmap_hat": {
    "name": "blitmap_hat",
    "img": "img/Head Accessories/blitmap_hat.png"
  },
  "Arrow": {
    "name": "Arrow",
    "img": "img/Head Accessories/Arrow.png"
  },
  "Gigaglow_Watcher": {
    "name": "Gigaglow_Watcher",
    "img": "img/Head Accessories/Gigaglow_Watcher.png"
  },
  "rightclicksavehood_headabove": {
    "name": "rightclicksavehood_headabove",
    "img": "img/Head Accessories/rightclicksavehood_headabove.png"
  },
  "Trunks-Hair-Too-Long": {
    "name": "Trunks-Hair-Too-Long",
    "img": "img/Head Accessories/Trunks-Hair-Too-Long.png"
  },
  "1337-smiley-.-": {
    "name": "1337-smiley-.-",
    "img": "img/Head Accessories/1337-smiley-.-.png"
  },
  "C0C0": {
    "name": "C0C0",
    "img": "img/Head Accessories/C0C0.png"
  },
  "watcher_tophat_headabove": {
    "name": "watcher_tophat_headabove",
    "img": "img/Head Accessories/watcher_tophat_headabove.png"
  },
  "Halo": {
    "name": "Halo",
    "img": "img/Head Accessories/Halo.png"
  },
  "cowboy_pink_hat": {
    "name": "cowboy_pink_hat",
    "img": "img/Head Accessories/cowboy_pink_hat.png"
  },
  "Beer_Helmet": {
    "name": "Beer_Helmet",
    "img": "img/Head Accessories/Beer_Helmet.png"
  },
  "Thong-Pink": {
    "name": "Thong-Pink",
    "img": "img/Head Accessories/Thong-Pink.png"
  },
  "aviator": {
    "name": "aviator",
    "img": "img/Head Accessories/aviator.png"
  },
  "watcherhood_headabove": {
    "name": "watcherhood_headabove",
    "img": "img/Head Accessories/watcherhood_headabove.png"
  },
  "1337-smiley-8": {
    "name": "1337-smiley-8",
    "img": "img/Head Accessories/1337-smiley-8.png"
  },
  "Gold-Hood": {
    "name": "Gold-Hood",
    "img": "img/Head Accessories/Gold-Hood.png"
  },
  "moonkarateband": {
    "name": "moonkarateband",
    "img": "img/Head Accessories/moonkarateband.png"
  },
  "saylor_hat": {
    "name": "saylor_hat",
    "img": "img/Head Accessories/saylor_hat.png"
  },
  "1337-HELMET_SKULL": {
    "name": "1337-HELMET_SKULL",
    "img": "img/Head Accessories/1337-HELMET_SKULL.png"
  },
  "beanie_orange_ape": {
    "name": "beanie_orange_ape",
    "img": "img/Head Accessories/beanie_orange_ape.png"
  },
  "1337_hornet-cap_32": {
    "name": "1337_hornet-cap_32",
    "img": "img/Head Accessories/1337_hornet-cap_32.png"
  },
  "thong-watcher": {
    "name": "thong-watcher",
    "img": "img/Head Accessories/thong-watcher.gif"
  },
  "gradito": {
    "name": "gradito",
    "img": "img/Head Accessories/gradito.png"
  },
  "luffyhat": {
    "name": "luffyhat",
    "img": "img/Head Accessories/luffyhat.png"
  },
  "1337-morning": {
    "name": "1337-morning",
    "img": "img/Head Accessories/1337-morning.png"
  },
  "Octopus-Gold": {
    "name": "Octopus-Gold",
    "img": "img/Head Accessories/Octopus-Gold.png"
  },
  "Watcher_Samurai": {
    "name": "Watcher_Samurai",
    "img": "img/Head Accessories/Watcher_Samurai.png"
  },
  "Clown-32": {
    "name": "Clown-32",
    "img": "img/Head Accessories/Clown-32.png"
  },
  "Thong-Hood": {
    "name": "Thong-Hood",
    "img": "img/Head Accessories/Thong-Hood.png"
  },
  "Helga-Blonde": {
    "name": "Helga-Blonde",
    "img": "img/Head Accessories/Helga-Blonde.png"
  },
  "Undercut_hair": {
    "name": "Undercut_hair",
    "img": "img/Head Accessories/Undercut_hair.png"
  },
  "8liens_planet": {
    "name": "8liens_planet",
    "img": "img/Head Accessories/8liens_planet.png"
  },
  "1337-neon-scan-hood": {
    "name": "1337-neon-scan-hood",
    "img": "img/Head Accessories/1337-neon-scan-hood.png"
  },
  "thong-rose": {
    "name": "thong-rose",
    "img": "img/Head Accessories/thong-rose.gif"
  },
  "Doctor-32": {
    "name": "Doctor-32",
    "img": "img/Head Accessories/Doctor-32.png"
  },
  "moon_pirate_hat": {
    "name": "moon_pirate_hat",
    "img": "img/Head Accessories/moon_pirate_hat.png"
  },
  "squiggle": {
    "name": "squiggle",
    "img": "img/Head Accessories/squiggle.png"
  },
  "Thong-GM": {
    "name": "Thong-GM",
    "img": "img/Head Accessories/Thong-GM.png"
  },
  "wildwhite_headabove": {
    "name": "wildwhite_headabove",
    "img": "img/Head Accessories/wildwhite_headabove.png"
  },
  "mohawk": {
    "name": "mohawk",
    "img": "img/Head Accessories/mohawk.gif"
  },
  "MotorcycleHelmet": {
    "name": "MotorcycleHelmet",
    "img": "img/Head Accessories/MotorcycleHelmet.png"
  },
  "Gigaglow-pink": {
    "name": "Gigaglow-pink",
    "img": "img/Head Accessories/Gigaglow-pink.png"
  },
  "Gigaglow-Blue": {
    "name": "Gigaglow-Blue",
    "img": "img/Head Accessories/Gigaglow-Blue.png"
  },
  "doritohat": {
    "name": "doritohat",
    "img": "img/Head Accessories/doritohat.gif"
  },
  "SaiyanArmour-32": {
    "name": "SaiyanArmour-32",
    "img": "img/Head Accessories/SaiyanArmour-32.png"
  },
  "saylor_blue_hat": {
    "name": "saylor_blue_hat",
    "img": "img/Head Accessories/saylor_blue_hat.png"
  },
  "hardrockchains": {
    "name": "hardrockchains",
    "img": "img/Head Accessories/hardrockchains.gif"
  },
  "dinohood_headabove": {
    "name": "dinohood_headabove",
    "img": "img/Head Accessories/dinohood_headabove.png"
  },
  "Thong-Classic": {
    "name": "Thong-Classic",
    "img": "img/Head Accessories/Thong-Classic.png"
  },
  "Copter_Hat": {
    "name": "Copter_Hat",
    "img": "img/Head Accessories/Copter_Hat.png"
  },
  "SpaceHelmet": {
    "name": "SpaceHelmet",
    "img": "img/Head Accessories/SpaceHelmet.png"
  },
  "Punk_Hat": {
    "name": "Punk_Hat",
    "img": "img/Head Accessories/Punk_Hat.png"
  },
  "1337_MEKA-2_32": {
    "name": "1337_MEKA-2_32",
    "img": "img/Head Accessories/1337_MEKA-2_32.png"
  },
  "1337_TURBAN-2x": {
    "name": "1337_TURBAN-2x",
    "img": "img/Head Accessories/1337_TURBAN-2x.png"
  },
  "Hood": {
    "name": "Hood",
    "img": "img/Head Accessories/Hood.png"
  },
  "drudishat": {
    "name": "drudishat",
    "img": "img/Head Accessories/drudishat.png"
  },
  "bandana-rgb": {
    "name": "bandana-rgb",
    "img": "img/Head Accessories/bandana-rgb.gif"
  },
  "White-Hood": {
    "name": "White-Hood",
    "img": "img/Head Accessories/White-Hood.png"
  },
  "thong-illuminate": {
    "name": "thong-illuminate",
    "img": "img/Head Accessories/thong-illuminate.gif"
  },
  "professor-flightsuit": {
    "name": "professor-flightsuit",
    "img": "img/Head Accessories/professor-flightsuit.png"
  },
  "strawberryhood_headabove": {
    "name": "strawberryhood_headabove",
    "img": "img/Head Accessories/strawberryhood_headabove.png"
  },
  "Logo-Top-Hat": {
    "name": "Logo-Top-Hat",
    "img": "img/Head Accessories/Logo-Top-Hat.png"
  },
  "TronHelmet": {
    "name": "TronHelmet",
    "img": "img/Head Accessories/TronHelmet.png"
  },
  "helga_white_headabove": {
    "name": "helga_white_headabove",
    "img": "img/Head Accessories/helga_white_headabove.png"
  },
  "moonbandana": {
    "name": "moonbandana",
    "img": "img/Head Accessories/moonbandana.png"
  },
  "Thong-Logo": {
    "name": "Thong-Logo",
    "img": "img/Head Accessories/Thong-Logo.png"
  },
  "thong-genesis": {
    "name": "thong-genesis",
    "img": "img/Head Accessories/thong-genesis.gif"
  },
  "cowboy_watcher_hat": {
    "name": "cowboy_watcher_hat",
    "img": "img/Head Accessories/cowboy_watcher_hat.png"
  },
  "e-girl-watcher-": {
    "name": "e-girl-watcher-",
    "img": "img/Head Accessories/e-girl-watcher-.gif"
  },
  "workerhat": {
    "name": "workerhat",
    "img": "img/Head Accessories/workerhat.png"
  },
  "oddities_arms": {
    "name": "oddities_arms",
    "img": "img/Head Accessories/oddities_arms.png"
  },
  "GorgImplant": {
    "name": "GorgImplant",
    "img": "img/Head Accessories/GorgImplant.png"
  },
  "vanillawatcherhat_headabove": {
    "name": "vanillawatcherhat_headabove",
    "img": "img/Head Accessories/vanillawatcherhat_headabove.png"
  },
  "Frog_head": {
    "name": "Frog_head",
    "img": "img/Head Accessories/Frog_head.png"
  },
  "Thong-Hair-Blue": {
    "name": "Thong-Hair-Blue",
    "img": "img/Head Accessories/Thong-Hair-Blue.png"
  },
  "thong-erruption": {
    "name": "thong-erruption",
    "img": "img/Head Accessories/thong-erruption.gif"
  },
  "Trunks-Hair": {
    "name": "Trunks-Hair",
    "img": "img/Head Accessories/Trunks-Hair.png"
  },
  "hairtail": {
    "name": "hairtail",
    "img": "img/Head Accessories/hairtail.png"
  },
  "1337-31337-banner-1": {
    "name": "1337-31337-banner-1",
    "img": "img/Head Accessories/1337-31337-banner-1.png"
  },
  "Genesis-Robe": {
    "name": "Genesis-Robe",
    "img": "img/Head Accessories/Genesis-Robe.png"
  },
  "CyclingCapKOM-32": {
    "name": "CyclingCapKOM-32",
    "img": "img/Head Accessories/CyclingCapKOM-32.png"
  },
  "1337-31337-banner-3": {
    "name": "1337-31337-banner-3",
    "img": "img/Head Accessories/1337-31337-banner-3.png"
  },
  "OC-Hat": {
    "name": "OC-Hat",
    "img": "img/Head Accessories/OC-Hat.gif"
  },
  "fedora": {
    "name": "fedora",
    "img": "img/Head Accessories/fedora.png"
  },
  "tubbycat_hood_head": {
    "name": "tubbycat_hood_head",
    "img": "img/Head Accessories/tubbycat_hood_head.png"
  },
  "Red_Cap": {
    "name": "Red_Cap",
    "img": "img/Head Accessories/Red_Cap.png"
  },
  "viking_helmet": {
    "name": "viking_helmet",
    "img": "img/Head Accessories/viking_helmet.png"
  },
  "frogito_eyes": {
    "name": "frogito_eyes",
    "img": "img/Head Accessories/frogito_eyes.png"
  },
  "BowlerHat-32": {
    "name": "BowlerHat-32",
    "img": "img/Head Accessories/BowlerHat-32.png"
  },
  "Mullet-32": {
    "name": "Mullet-32",
    "img": "img/Head Accessories/Mullet-32.png"
  },
  "BlitBeret-Genesis-32": {
    "name": "BlitBeret-Genesis-32",
    "img": "img/Head Accessories/BlitBeret-Genesis-32.png"
  },
  "buns_CDB": {
    "name": "buns_CDB",
    "img": "img/Head Accessories/buns_CDB.png"
  },
  "jacket-shearling": {
    "name": "jacket-shearling",
    "img": "img/Head Accessories/jacket-shearling.gif"
  },
  "toadz": {
    "name": "toadz",
    "img": "img/Head Accessories/toadz.png"
  },
  "Flames": {
    "name": "Flames",
    "img": "img/Head Accessories/Flames.png"
  },
  "toadzcap": {
    "name": "toadzcap",
    "img": "img/Head Accessories/toadzcap.png"
  },
  "Flames_Watcher": {
    "name": "Flames_Watcher",
    "img": "img/Head Accessories/Flames_Watcher.png"
  },
  "Crown(1)": {
    "name": "Crown(1)",
    "img": "img/Head Accessories/Crown(1).png"
  },
  "touch-grass-anon": {
    "name": "touch-grass-anon",
    "img": "img/Head Accessories/touch-grass-anon.png"
  },
  "helga_red_headabove": {
    "name": "helga_red_headabove",
    "img": "img/Head Accessories/helga_red_headabove.png"
  },
  "Siggi_Rodman": {
    "name": "Siggi_Rodman",
    "img": "img/Head Accessories/Siggi_Rodman.png"
  },
  "NFL_SKULLx": {
    "name": "NFL_SKULLx",
    "img": "img/Head Accessories/NFL_SKULLx.png"
  },
  "Metal-Rice-Hat": {
    "name": "Metal-Rice-Hat",
    "img": "img/Head Accessories/Metal-Rice-Hat.png"
  },
  "roman_helmet": {
    "name": "roman_helmet",
    "img": "img/Head Accessories/roman_helmet.png"
  },
  "Brain_Undead": {
    "name": "Brain_Undead",
    "img": "img/Head Accessories/Brain_Undead.png"
  },
  "1337_KNIGHT_32": {
    "name": "1337_KNIGHT_32",
    "img": "img/Head Accessories/1337_KNIGHT_32.png"
  },
  "piratehat": {
    "name": "piratehat",
    "img": "img/Head Accessories/piratehat.png"
  },
  "cdb_cute_ears": {
    "name": "cdb_cute_ears",
    "img": "img/Head Accessories/cdb_cute_ears.png"
  },
  "professor-hat": {
    "name": "professor-hat",
    "img": "img/Head Accessories/professor-hat.png"
  },
  "cowboy_8liens": {
    "name": "cowboy_8liens",
    "img": "img/Head Accessories/cowboy_8liens.png"
  },
  "crown": {
    "name": "crown",
    "img": "img/Head Accessories/crown.png"
  },
  "chaincap": {
    "name": "chaincap",
    "img": "img/Head Accessories/chaincap.png"
  },
  "BlitBeret-32": {
    "name": "BlitBeret-32",
    "img": "img/Head Accessories/BlitBeret-32.png"
  },
  "goku_hair_teddies": {
    "name": "goku_hair_teddies",
    "img": "img/Head Accessories/goku_hair_teddies.png"
  },
  "beanie_blue_ape": {
    "name": "beanie_blue_ape",
    "img": "img/Head Accessories/beanie_blue_ape.png"
  },
  "BlitBeret-Watcher-32": {
    "name": "BlitBeret-Watcher-32",
    "img": "img/Head Accessories/BlitBeret-Watcher-32.png"
  },
  "Snake": {
    "name": "Snake",
    "img": "img/Head Accessories/Snake.png"
  },
  "Horns_CDB": {
    "name": "Horns_CDB",
    "img": "img/Head Accessories/Horns_CDB.png"
  },
  "wildblack_headabove": {
    "name": "wildblack_headabove",
    "img": "img/Head Accessories/wildblack_headabove.png"
  },
  "Periwinkle-Cap": {
    "name": "Periwinkle-Cap",
    "img": "img/Head Accessories/Periwinkle-Cap.png"
  },
  "Lemur": {
    "name": "Lemur",
    "img": "img/Head Accessories/Lemur.png"
  },
  "1337-pirate-smiley": {
    "name": "1337-pirate-smiley",
    "img": "img/Head Accessories/1337-pirate-smiley.png"
  },
  "Goblin_Headl": {
    "name": "Goblin_Headl",
    "img": "img/Head Accessories/Goblin_Headl.png"
  },
  "Pink-Hair": {
    "name": "Pink-Hair",
    "img": "img/Head Accessories/Pink-Hair.png"
  },
  "BlitBeret-Angrybirby-32": {
    "name": "BlitBeret-Angrybirby-32",
    "img": "img/Head Accessories/BlitBeret-Angrybirby-32.png"
  },
  "MantidHelmet": {
    "name": "MantidHelmet",
    "img": "img/Head Accessories/MantidHelmet.png"
  },
  "beanny": {
    "name": "beanny",
    "img": "img/Head Accessories/beanny.png"
  },
  "jpg_summer_headabove": {
    "name": "jpg_summer_headabove",
    "img": "img/Head Accessories/jpg_summer_headabove.png"
  }
}