{
  "thewatcher_glitch": {
    "name": "thewatcher_glitch",
    "img": "img/Skull/thewatcher_glitch.png"
  },
  "rightclicksaveskull": {
    "name": "rightclicksaveskull",
    "img": "img/Skull/rightclicksaveskull.png"
  },
  "Cheese-man": {
    "name": "Cheese-man",
    "img": "img/Skull/Cheese-man.png"
  },
  "glitch": {
    "name": "glitch",
    "img": "img/Skull/glitch.png"
  },
  "skull_smiley_lofi": {
    "name": "skull_smiley_lofi",
    "img": "img/Skull/skull_smiley_lofi.png"
  },
  "balapa-skull": {
    "name": "balapa-skull",
    "img": "img/Skull/balapa-skull.gif"
  },
  "toadz_skulldenza_skull": {
    "name": "toadz_skulldenza_skull",
    "img": "img/Skull/toadz_skulldenza_skull.png"
  },
  "1337-dithered-blue-pink": {
    "name": "1337-dithered-blue-pink",
    "img": "img/Skull/1337-dithered-blue-pink.png"
  },
  "Skull-Blue": {
    "name": "Skull-Blue",
    "img": "img/Skull/Skull-Blue.png"
  },
  "Skull-Pink": {
    "name": "Skull-Pink",
    "img": "img/Skull/Skull-Pink.png"
  },
  "skull_metal": {
    "name": "skull_metal",
    "img": "img/Skull/skull_metal.png"
  },
  "Skull": {
    "name": "Skull",
    "img": "img/Skull/Skull.png"
  },
  "skull_smiley_red": {
    "name": "skull_smiley_red",
    "img": "img/Skull/skull_smiley_red.png"
  },
  "skull_synthwave": {
    "name": "skull_synthwave",
    "img": "img/Skull/skull_synthwave.png"
  },
  "Skull-Grid": {
    "name": "Skull-Grid",
    "img": "img/Skull/Skull-Grid.png"
  },
  "Skull-Do-Cry": {
    "name": "Skull-Do-Cry",
    "img": "img/Skull/Skull-Do-Cry.png"
  },
  "Skull-Halftone": {
    "name": "Skull-Halftone",
    "img": "img/Skull/Skull-Halftone.png"
  },
  "totally_skull_body_small": {
    "name": "totally_skull_body_small",
    "img": "img/Skull/totally_skull_body_small.png"
  },
  "Skull-Rock": {
    "name": "Skull-Rock",
    "img": "img/Skull/Skull-Rock.png"
  },
  "1337-grievous": {
    "name": "1337-grievous",
    "img": "img/Skull/1337-grievous.png"
  },
  "Skull-Selected": {
    "name": "Skull-Selected",
    "img": "img/Skull/Skull-Selected.png"
  },
  "skull_smiley_grey": {
    "name": "skull_smiley_grey",
    "img": "img/Skull/skull_smiley_grey.png"
  },
  "Skull-Venom": {
    "name": "Skull-Venom",
    "img": "img/Skull/Skull-Venom.png"
  },
  "Skull-Bot": {
    "name": "Skull-Bot",
    "img": "img/Skull/Skull-Bot.png"
  },
  "Skull-Watcher": {
    "name": "Skull-Watcher",
    "img": "img/Skull/Skull-Watcher.png"
  },
  "melony_skull": {
    "name": "melony_skull",
    "img": "img/Skull/melony_skull.png"
  },
  "skull_lofi": {
    "name": "skull_lofi",
    "img": "img/Skull/skull_lofi.png"
  },
  "skull_smiley_synthwave": {
    "name": "skull_smiley_synthwave",
    "img": "img/Skull/skull_smiley_synthwave.png"
  },
  "toadz_blood_bones_skull_small": {
    "name": "toadz_blood_bones_skull_small",
    "img": "img/Skull/toadz_blood_bones_skull_small.png"
  },
  "Skull-Code": {
    "name": "Skull-Code",
    "img": "img/Skull/Skull-Code.png"
  },
  "skull_everything": {
    "name": "skull_everything",
    "img": "img/Skull/skull_everything.png"
  },
  "Grumpl": {
    "name": "Grumpl",
    "img": "img/Skull/Grumpl.png"
  },
  "Skull-Transparent": {
    "name": "Skull-Transparent",
    "img": "img/Skull/Skull-Transparent.png"
  },
  "Skull-Skulletor": {
    "name": "Skull-Skulletor",
    "img": "img/Skull/Skull-Skulletor.png"
  },
  "theguymask2_faceaccessory": {
    "name": "theguymask2_faceaccessory",
    "img": "img/Skull/theguymask2_faceaccessory.png"
  },
  "Skull-Black": {
    "name": "Skull-Black",
    "img": "img/Skull/Skull-Black.png"
  },
  "chaos-flow-skull": {
    "name": "chaos-flow-skull",
    "img": "img/Skull/chaos-flow-skull.gif"
  },
  "toadz_skullbot_skull": {
    "name": "toadz_skullbot_skull",
    "img": "img/Skull/toadz_skullbot_skull.png"
  },
  "Skull-Alien": {
    "name": "Skull-Alien",
    "img": "img/Skull/Skull-Alien.png"
  },
  "psychic_skull": {
    "name": "psychic_skull",
    "img": "img/Skull/psychic_skull.png"
  },
  "toadz_gorilla_skull": {
    "name": "toadz_gorilla_skull",
    "img": "img/Skull/toadz_gorilla_skull.png"
  },
  "Rare-Alien": {
    "name": "Rare-Alien",
    "img": "img/Skull/Rare-Alien.png"
  },
  "1337-skull-purple-ish": {
    "name": "1337-skull-purple-ish",
    "img": "img/Skull/1337-skull-purple-ish.png"
  },
  "Skull-Hellraiser": {
    "name": "Skull-Hellraiser",
    "img": "img/Skull/Skull-Hellraiser.png"
  },
  "Skull-Gold": {
    "name": "Skull-Gold",
    "img": "img/Skull/Skull-Gold.png"
  },
  "skull_coolblue": {
    "name": "skull_coolblue",
    "img": "img/Skull/skull_coolblue.png"
  },
  "swampy-32": {
    "name": "swampy-32",
    "img": "img/Skull/swampy-32.png"
  },
  "toadz_blood_bones_skull": {
    "name": "toadz_blood_bones_skull",
    "img": "img/Skull/toadz_blood_bones_skull.png"
  },
  "meltman_skull": {
    "name": "meltman_skull",
    "img": "img/Skull/meltman_skull.png"
  },
  "Rare-Human": {
    "name": "Rare-Human",
    "img": "img/Skull/Rare-Human.png"
  },
  "optimist_skull": {
    "name": "optimist_skull",
    "img": "img/Skull/optimist_skull.png"
  },
  "1337-plain-white-skull": {
    "name": "1337-plain-white-skull",
    "img": "img/Skull/1337-plain-white-skull.png"
  },
  "toadz_booger_skull": {
    "name": "toadz_booger_skull",
    "img": "img/Skull/toadz_booger_skull.png"
  },
  "Skull-Human-3": {
    "name": "Skull-Human-3",
    "img": "img/Skull/Skull-Human-3.png"
  },
  "Skull-Logo": {
    "name": "Skull-Logo",
    "img": "img/Skull/Skull-Logo.png"
  },
  "Skull-Human-2": {
    "name": "Skull-Human-2",
    "img": "img/Skull/Skull-Human-2.png"
  },
  "skull1337": {
    "name": "skull1337",
    "img": "img/Skull/skull1337.png"
  },
  "PREDATOR_SKULLx": {
    "name": "PREDATOR_SKULLx",
    "img": "img/Skull/PREDATOR_SKULLx.png"
  },
  "Rare-Ape": {
    "name": "Rare-Ape",
    "img": "img/Skull/Rare-Ape.png"
  },
  "Skull-Human-1": {
    "name": "Skull-Human-1",
    "img": "img/Skull/Skull-Human-1.png"
  },
  "Skull-Red": {
    "name": "Skull-Red",
    "img": "img/Skull/Skull-Red.png"
  },
  "skull_smiley_blue": {
    "name": "skull_smiley_blue",
    "img": "img/Skull/skull_smiley_blue.png"
  },
  "circuit": {
    "name": "circuit",
    "img": "img/Skull/circuit.gif"
  },
  "toadz_ghost_skull": {
    "name": "toadz_ghost_skull",
    "img": "img/Skull/toadz_ghost_skull.png"
  },
  "1337-dithered-bw-trans": {
    "name": "1337-dithered-bw-trans",
    "img": "img/Skull/1337-dithered-bw-trans.png"
  },
  "Skull-Grey": {
    "name": "Skull-Grey",
    "img": "img/Skull/Skull-Grey.png"
  },
  "1337-skull-white-marks": {
    "name": "1337-skull-white-marks",
    "img": "img/Skull/1337-skull-white-marks.png"
  },
  "toadz_gargoyle_skull": {
    "name": "toadz_gargoyle_skull",
    "img": "img/Skull/toadz_gargoyle_skull.png"
  },
  "skull_lightgrey": {
    "name": "skull_lightgrey",
    "img": "img/Skull/skull_lightgrey.png"
  },
  "Skull-Teddy": {
    "name": "Skull-Teddy",
    "img": "img/Skull/Skull-Teddy.png"
  },
  "skull_smiley_metal": {
    "name": "skull_smiley_metal",
    "img": "img/Skull/skull_smiley_metal.png"
  },
  "1337-plain-pink-skull": {
    "name": "1337-plain-pink-skull",
    "img": "img/Skull/1337-plain-pink-skull.png"
  },
  "Skull-White": {
    "name": "Skull-White",
    "img": "img/Skull/Skull-White.png"
  },
  "toadz_creep_skull": {
    "name": "toadz_creep_skull",
    "img": "img/Skull/toadz_creep_skull.png"
  },
  "toadz_bones_skull": {
    "name": "toadz_bones_skull",
    "img": "img/Skull/toadz_bones_skull.png"
  },
  "gato_skull": {
    "name": "gato_skull",
    "img": "img/Skull/gato_skull.png"
  },
  "Rare-Bot": {
    "name": "Rare-Bot",
    "img": "img/Skull/Rare-Bot.png"
  }
}