{
  "stamp": {
    "name": "stamp",
    "img": "img/Special/stamp.gif"
  },
  "horns": {
    "name": "horns",
    "img": "img/Special/horns.gif"
  },
  "NanoTheGuySayWhat-32": {
    "name": "NanoTheGuySayWhat-32",
    "img": "img/Special/NanoTheGuySayWhat-32.png"
  },
  "Oxmon-32": {
    "name": "Oxmon-32",
    "img": "img/Special/Oxmon-32.png"
  },
  "Diving_Tube": {
    "name": "Diving_Tube",
    "img": "img/Special/Diving_Tube.png"
  },
  "Bibos": {
    "name": "Bibos",
    "img": "img/Special/Bibos.png"
  },
  "blood_special": {
    "name": "blood_special",
    "img": "img/Special/blood_special.png"
  },
  "Golden-Frame": {
    "name": "Golden-Frame",
    "img": "img/Special/Golden-Frame.png"
  },
  "Earth_Moon": {
    "name": "Earth_Moon",
    "img": "img/Special/Earth_Moon.png"
  },
  "hillside_special": {
    "name": "hillside_special",
    "img": "img/Special/hillside_special.png"
  },
  "Chessbirdy-Side-32": {
    "name": "Chessbirdy-Side-32",
    "img": "img/Special/Chessbirdy-Side-32.png"
  },
  "moonbird_elontoad_special": {
    "name": "moonbird_elontoad_special",
    "img": "img/Special/moonbird_elontoad_special.png"
  },
  "BUBBLEGUM_SKULLx": {
    "name": "BUBBLEGUM_SKULLx",
    "img": "img/Special/BUBBLEGUM_SKULLx.png"
  },
  "the_chip": {
    "name": "the_chip",
    "img": "img/Special/the chip.gif"
  },
  "Dom-Rose": {
    "name": "Dom-Rose",
    "img": "img/Special/Dom-Rose.png"
  },
  "Sparkle": {
    "name": "Sparkle",
    "img": "img/Special/Sparkle.png"
  },
  "Chicken": {
    "name": "Chicken",
    "img": "img/Special/Chicken.png"
  },
  "Slime": {
    "name": "Slime",
    "img": "img/Special/Slime.png"
  },
  "Chessbirdy-Top-32": {
    "name": "Chessbirdy-Top-32",
    "img": "img/Special/Chessbirdy-Top-32.png"
  },
  "Smokeout": {
    "name": "Smokeout",
    "img": "img/Special/Smokeout.png"
  },
  "NanoTheGuy-32": {
    "name": "NanoTheGuy-32",
    "img": "img/Special/NanoTheGuy-32.png"
  },
  "9m_Comicl": {
    "name": "9m_Comicl",
    "img": "img/Special/9m_Comicl.png"
  },
  "tiny_dino_69_special": {
    "name": "tiny_dino_69_special",
    "img": "img/Special/tiny_dino_69_special.png"
  },
  "8liens_fire_special": {
    "name": "8liens_fire_special",
    "img": "img/Special/8liens_fire_special.png"
  },
  "Foam": {
    "name": "Foam",
    "img": "img/Special/Foam.png"
  },
  "UFO": {
    "name": "UFO",
    "img": "img/Special/UFO.png"
  },
  "tiny_dino_bottom_special": {
    "name": "tiny_dino_bottom_special",
    "img": "img/Special/tiny_dino_bottom_special.png"
  },
  "Cigar": {
    "name": "Cigar",
    "img": "img/Special/Cigar.png"
  },
  "cigarette": {
    "name": "cigarette",
    "img": "img/Special/cigarette.gif"
  },
  "tiny_dino_1337_special": {
    "name": "tiny_dino_1337_special",
    "img": "img/Special/tiny_dino_1337_special.png"
  },
  "Knife": {
    "name": "Knife",
    "img": "img/Special/Knife.png"
  },
  "Pacifier": {
    "name": "Pacifier",
    "img": "img/Special/Pacifier.png"
  },
  "Pizza": {
    "name": "Pizza",
    "img": "img/Special/Pizza.png"
  },
  "9m_special": {
    "name": "9m_special",
    "img": "img/Special/9m_special.png"
  },
  "cheese_special": {
    "name": "cheese_special",
    "img": "img/Special/cheese_special.png"
  },
  "nightmoon_special": {
    "name": "nightmoon_special",
    "img": "img/Special/nightmoon_special.png"
  },
  "1337-antenna": {
    "name": "1337-antenna",
    "img": "img/Special/1337-antenna.png"
  },
  "Chocolate": {
    "name": "Chocolate",
    "img": "img/Special/Chocolate.png"
  },
  "jpg_summer_special": {
    "name": "jpg_summer_special",
    "img": "img/Special/jpg_summer_special.png"
  },
  "drink_special_8liens": {
    "name": "drink_special_8liens",
    "img": "img/Special/drink_special_8liens.png"
  },
  "Three-Flies": {
    "name": "Three-Flies",
    "img": "img/Special/Three-Flies.png"
  },
  "Rainbow": {
    "name": "Rainbow",
    "img": "img/Special/Rainbow.png"
  }
}